23	49
14	16
70	20
70	20
107	21
69	51
69	51
70	20
70	20
70	20
70	20
69	51
42	96
124	34
42	96
124	34
124	34
124	34
124	34
74	16
70	4
73	51
73	51
73	51
73	51
73	51
73	51
73	51
73	51
73	51
73	51
73	51
73	51
73	51
73	51
73	51
73	51
73	51
73	51
73	51
73	51
73	51
73	51
73	51
73	51
73	51
73	51
149	51
73	51
73	51
73	51
73	51
13	67
13	67
13	67
13	67
13	67
13	67
13	67
73	51
73	51
73	51
73	51
73	51
73	51
73	51
157	123
44	78
124	34
67	9
67	9
107	121
69	127
157	123
7	25
7	25
44	102
7	25
7	25
92	126
44	126
101	83
107	113
69	51
157	159
69	51
69	51
133	135
69	107
69	107
69	107
69	107
49	59
73	23
13	27
49	59
73	23
69	51
73	23
73	23
73	23
73	23
73	23
12	38
69	51
73	23
73	23
73	23
69	51
73	23
73	23
73	23
10	96
70	140
70	140
70	140
70	140
48	110
73	23
70	140
73	23
70	140
23	69
23	69
100	102
157	51
23	69
157	51
23	69
23	69
23	69
23	69
23	69
23	69
23	69
23	69
23	69
157	123
157	123
23	69
103	117
49	59
2	4
107	101
2	4
23	69
49	59
23	69
23	69
23	69
157	107
157	107
157	107
157	107
128	114
20	70
20	70
20	70
20	70
20	70
20	70
20	70
20	70
20	70
20	70
20	70
20	70
20	70
157	107
157	107
157	107
157	107
157	107
157	107
73	23
73	23
73	23
73	23
49	59
128	110
48	50
128	94
128	62
157	51
103	125
157	51
103	125
157	123
157	51
51	69
51	69
23	69
23	69
23	69
138	148
157	123
157	123
157	123
23	73
23	73
23	73
23	73
142	148
23	73
51	69
114	128
23	73
23	73
23	73
23	73
23	73
73	23
73	23
73	23
23	73
19	137
23	73
23	73
23	73
23	73
23	73
23	73
23	73
73	23
73	23
23	73
23	73
23	73
23	73
23	73
73	23
73	23
73	23
19	29
136	110
76	98
76	98
76	98
73	23
18	140
76	98
76	98
73	23
76	98
76	98
76	98
76	98
76	98
76	98
76	98
76	98
69	23
69	23
69	23
69	23
69	23
69	23
69	23
136	110
69	23
73	23
73	23
69	23
73	23
73	23
73	23
25	59
73	23
73	23
27	5
136	38
136	38
135	133
135	133
157	123
9	67
9	67
9	67
157	51
73	23
23	69
23	69
23	69
23	69
23	69
23	69
23	69
107	45
23	69
157	127
157	127
157	127
107	77
157	51
69	51
69	51
157	51
157	51
157	127
157	127
157	127
157	127
157	127
28	2
100	102
18	32
18	32
18	32
18	32
18	32
18	32
18	32
18	32
18	32
18	32
18	32
18	32
18	32
18	32
18	32
18	32
18	32
18	32
18	32
18	32
18	32
18	32
28	18
28	18
28	18
28	70
29	3
48	110
157	127
48	110
49	59
48	110
107	17
107	17
51	65
48	110
49	59
48	110
48	110
49	59
73	147
107	45
157	123
49	71
49	71
67	13
67	13
67	13
49	59
107	149
107	149
18	28
18	28
18	28
18	28
107	149
79	113
70	72
100	102
73	107
100	102
79	121
73	23
73	23
73	23
73	23
73	23
73	23
73	23
73	23
135	85
73	107
73	107
73	107
73	107
73	23
73	23
18	20
73	107
73	107
73	107
73	23
73	23
135	85
73	107
73	23
32	18
32	18
73	23
73	23
32	18
32	18
73	107
73	107
135	85
135	85
135	85
135	85
135	85
73	107
73	107
73	107
73	107
73	107
73	107
73	107
135	85
135	85
135	85
135	85
135	85
135	85
80	58
135	85
135	85
135	85
135	85
135	85
73	51
73	51
73	51
73	51
73	51
73	51
17	71
17	71
17	71
17	71
17	71
17	71
17	71
17	71
17	71
17	71
17	71
17	71
17	71
17	71
17	71
17	71
135	85
73	23
135	85
135	85
85	131
85	135
73	23
73	23
73	23
73	23
73	51
73	51
73	51
157	51
65	27
157	51
125	103
125	103
70	72
2	20
2	20
2	20
157	159
59	97
17	59
17	59
17	59
17	59
17	59
17	59
17	59
17	59
17	59
17	59
17	59
17	59
17	59
17	59
17	59
17	59
17	59
34	124
34	124
36	54
36	54
73	23
86	148
86	148
73	23
73	23
71	21
71	21
59	49
71	21
157	127
70	72
71	17
59	37
59	25
73	23
73	23
49	59
73	23
49	59
49	59
37	71
73	23
73	23
73	23
73	23
73	23
73	23
73	23
73	23
73	23
73	23
73	23
49	59
59	17
59	17
125	95
37	71
125	95
124	34
70	72
70	28
59	1
38	12
98	76
98	76
98	76
98	76
56	26
38	136
39	121
54	36
54	36
42	40
42	40
49	59
50	48
49	59
49	59
49	59
49	59
157	127
50	48
50	48
148	138
70	20
70	20
70	20
48	91
48	91
51	46
51	46
51	54
48	67
48	67
48	67
51	54
51	54
51	54
51	54
51	54
51	54
51	66
51	74
51	74
65	16
65	16
67	50
67	50
67	50
67	50
67	50
68	3
68	3
68	3
68	3
68	3
68	3
68	3
68	3
68	3
68	3
68	3
68	3
68	3
68	3
68	3
68	3
68	3
68	3
68	3
68	3
68	3
68	3
68	3
68	3
68	3
68	3
68	3
68	3
68	3
68	3
69	92
69	92
70	29
71	10
44	111
44	111
44	111
73	140
73	140
44	103
44	103
74	65
74	65
74	137
74	137
74	137
44	91
44	91
43	2
43	2
43	2
43	2
42	125
42	125
42	125
42	125
42	61
42	61
42	17
42	17
38	121
75	110
75	110
75	110
75	110
75	110
75	110
75	110
75	110
38	73
38	73
38	73
38	73
38	73
76	7
76	7
76	7
76	7
76	7
76	7
76	7
76	7
38	37
38	37
76	75
38	17
38	17
38	17
38	17
38	17
76	75
76	75
76	75
76	75
76	75
76	75
76	75
76	75
78	45
78	149
79	122
80	95
80	103
84	107
84	107
86	93
36	123
86	133
86	133
87	86
35	34
35	34
35	34
35	34
90	101
92	23
92	23
92	39
92	39
92	39
92	39
92	39
92	79
92	79
92	79
31	22
29	140
29	140
29	140
29	140
92	83
92	83
92	83
92	83
29	68
29	68
29	68
92	107
92	107
92	107
92	107
92	107
92	107
28	19
92	119
92	119
92	119
92	119
92	159
27	110
27	14
27	14
100	91
100	91
100	91
100	91
100	111
100	111
100	111
100	111
101	128
101	128
103	58
24	147
24	147
105	100
105	100
24	79
105	112
105	112
105	112
105	112
105	112
105	112
105	112
157	36
23	46
105	128
23	14
23	14
23	14
107	10
107	10
107	38
107	38
107	38
107	38
157	36
20	19
20	19
20	19
20	19
20	19
20	19
20	19
20	19
20	19
20	19
20	19
20	19
20	19
107	78
107	78
107	102
20	3
107	122
19	70
19	70
19	70
19	70
107	122
157	36
157	36
157	36
107	126
107	126
19	18
19	18
19	18
18	137
157	36
157	36
157	36
17	132
17	132
157	36
109	36
17	56
17	56
17	56
17	56
17	56
17	56
17	56
17	56
17	56
17	56
17	56
17	56
17	56
17	56
17	56
17	56
111	78
111	102
113	24
113	24
113	24
113	24
157	36
113	108
113	108
113	108
113	152
17	40
17	40
17	40
17	40
17	40
17	40
17	40
17	40
17	40
17	40
17	40
17	40
17	40
17	40
17	40
17	40
114	81
114	101
114	101
118	17
118	17
16	51
118	21
118	21
118	21
118	21
118	21
118	21
118	21
118	61
118	77
14	73
14	69
14	69
14	69
122	109
14	65
14	65
14	65
14	65
124	31
124	31
124	31
124	31
124	31
124	31
124	35
124	35
124	35
124	35
124	35
124	35
125	80
125	80
128	47
130	133
130	133
13	48
13	48
13	48
13	48
13	48
13	48
133	132
133	132
133	132
135	86
135	86
135	130
135	130
135	134
135	134
135	134
135	134
135	134
135	134
135	134
135	134
135	134
135	134
135	134
135	134
135	134
135	134
135	134
135	134
135	134
135	134
135	134
135	134
4	3
157	68
135	138
12	11
12	11
12	11
135	138
135	138
135	138
135	138
135	138
135	138
135	138
135	138
135	138
135	138
135	138
135	138
135	138
135	138
135	138
12	7
12	7
12	7
12	7
135	138
135	138
135	138
135	138
157	68
157	156
157	156
157	156
157	156
135	138
135	142
135	142
135	142
135	142
135	142
135	142
135	142
135	142
135	142
135	142
135	142
135	142
135	142
135	142
135	142
135	142
135	142
135	142
135	142
135	142
135	142
136	75
137	20
11	38
11	38
11	38
11	38
11	38
11	38
11	38
11	38
11	38
11	38
11	38
11	38
11	38
11	38
11	38
137	32
137	32
157	156
137	68
137	68
157	156
157	156
137	140
10	21
10	21
10	17
10	17
10	17
140	3
140	3
157	156
157	156
157	156
9	48
9	48
142	85
148	87
148	115
148	115
148	135
148	135
148	135
148	135
148	135
148	135
49	40
49	40
49	56
50	13
48	91
73	69
73	69
73	69
73	69
73	69
73	69
73	69
73	69
73	69
69	73
73	69
73	69
73	69
73	69
73	69
73	69
73	69
37	73
49	21
73	69
109	21
152	24
79	83
73	69
73	69
73	69
73	69
152	88
17	1
17	1
73	69
73	69
73	69
73	69
73	69
125	105
73	69
73	69
73	69
73	69
73	69
73	69
79	107
73	69
73	69
73	69
73	69
73	69
73	69
73	69
49	21
103	95
73	69
73	69
140	4
73	69
73	69
73	69
14	74
14	74
73	69
73	69
137	29
142	138
73	69
128	8
107	39
38	10
142	134
32	4
69	73
107	123
51	127
74	14
74	14
74	14
118	26
157	65
157	65
157	149
137	29
100	104
100	104
44	100
4	20
107	103
107	103
37	17
23	27
37	17
86	130
24	88
24	88
13	9
13	9
13	9
13	9
13	9
20	140
20	140
20	140
20	140
24	88
20	140
24	88
20	140
24	88
24	88
24	88
20	140
20	140
20	140
24	88
24	88
24	88
24	88
20	140
24	88
24	88
24	88
24	88
24	88
11	75
11	75
11	75
11	75
11	75
11	75
20	140
20	140
20	140
20	140
107	83
74	154
74	154
74	154
74	154
24	88
135	87
135	87
107	83
24	88
133	93
133	93
110	114
61	49
100	104
86	138
24	92
24	108
86	138
132	92
88	24
17	145
17	145
17	145
48	44
48	44
49	25
49	25
48	44
114	110
48	92
17	145
49	37
48	92
24	152
24	152
49	37
51	127
38	10
49	41
125	61
157	29
20	140
25	17
157	29
17	145
17	145
17	145
11	7
11	7
11	7
11	7
11	7
11	7
44	36
49	61
125	117
61	17
157	65
125	61
128	120
51	127
157	65
17	145
157	65
157	65
136	76
17	145
157	65
28	20
28	20
28	20
72	20
7	75
7	75
75	11
92	132
7	11
7	11
69	65
125	105
125	105
72	20
68	140
68	140
23	51
23	51
23	51
49	41
17	125
17	125
17	125
17	125
17	125
17	125
17	125
17	125
17	125
17	125
17	125
23	51
49	125
4	20
75	11
100	112
72	20
17	97
17	97
23	51
137	65
92	108
51	123
51	107
51	107
140	72
66	54
2	70
65	157
70	18
157	65
157	65
17	145
17	145
88	152
49	125
135	143
135	143
49	125
65	137
17	61
17	61
17	61
17	61
17	61
17	61
17	61
17	61
17	61
17	61
17	61
17	61
17	61
17	61
17	61
17	61
17	145
3	19
75	11
128	112
157	149
73	1
38	46
157	149
157	149
125	61
135	143
157	65
37	21
37	21
73	37
49	145
49	145
135	143
135	143
135	143
100	104
157	69
4	72
4	140
157	69
135	143
17	49
17	49
17	49
17	49
17	49
17	49
17	49
17	49
17	49
17	49
17	49
17	49
17	49
17	49
17	49
17	49
4	140
44	104
44	104
44	104
157	149
157	109
51	127
135	143
135	143
17	145
114	110
17	145
28	32
157	149
42	106
32	28
135	143
115	87
135	143
157	109
107	47
157	149
37	17
48	136
92	108
49	17
42	126
35	43
157	149
105	125
149	65
17	41
17	41
17	41
17	41
17	41
17	41
17	41
17	41
17	41
17	41
17	41
17	41
17	41
17	41
17	41
17	41
17	41
42	26
135	131
135	131
135	131
135	131
135	131
135	131
135	131
135	131
135	131
135	131
42	26
125	61
17	145
135	143
135	143
23	107
23	107
23	107
100	44
100	44
135	143
135	143
20	72
28	140
20	72
20	72
20	72
20	72
20	72
20	72
20	72
20	72
9	13
20	72
20	72
20	72
17	37
17	37
17	37
17	37
17	37
17	37
17	37
17	37
17	37
17	37
17	37
17	37
17	37
17	37
17	37
17	37
20	72
28	140
20	72
20	72
105	61
128	100
135	143
20	68
135	143
17	145
135	143
135	143
128	96
76	136
76	136
76	136
29	137
29	137
69	73
76	136
76	136
157	149
69	73
69	73
49	17
38	10
61	125
69	73
111	91
135	143
107	39
69	73
51	123
69	73
20	156
78	54
69	73
78	102
78	102
100	44
78	102
42	126
42	126
20	4
20	4
42	126
107	11
92	108
37	17
17	25
17	25
17	25
17	25
17	25
17	25
17	25
17	25
17	25
17	25
17	25
17	25
17	25
17	25
17	25
17	25
20	4
21	109
69	73
135	131
135	131
135	131
135	131
135	131
135	131
135	131
135	131
135	131
135	131
92	24
73	69
100	44
92	24
73	69
73	69
73	69
73	69
73	69
73	69
73	69
73	69
73	69
73	69
73	69
73	69
73	69
73	69
73	69
73	69
73	69
73	69
73	69
73	69
73	69
79	39
140	20
73	69
107	39
73	69
17	21
17	21
17	21
17	21
17	21
17	21
17	21
17	21
17	21
17	21
17	21
17	21
17	21
17	21
17	21
17	21
73	69
73	69
73	69
73	69
73	69
73	69
73	69
73	69
27	136
58	107
38	11
107	92
107	92
77	90
157	74
157	74
157	74
157	74
157	74
17	10
17	10
73	54
70	19
73	46
17	10
19	28
19	28
19	28
2	43
17	10
128	101
157	54
157	54
61	118
107	92
107	92
157	54
19	72
133	130
157	46
157	46
107	92
107	84
11	12
11	12
11	12
11	12
11	12
11	12
11	12
11	12
11	12
11	12
11	12
11	12
133	130
75	76
157	10
157	10
75	76
75	76
75	76
19	140
133	130
157	46
157	46
38	11
38	11
38	11
19	140
107	44
133	130
67	136
19	140
157	54
75	12
133	130
133	130
133	130
107	44
107	36
133	130
44	89
17	10
23	92
73	54
73	54
17	10
14	27
49	26
23	92
73	54
73	54
73	54
73	54
157	54
49	26
67	48
7	76
149	78
73	54
157	54
3	68
157	54
128	105
157	54
38	11
107	16
107	12
38	11
49	10
49	10
24	113
38	11
157	46
38	11
24	113
24	113
24	113
122	123
122	123
73	46
73	46
73	46
38	11
122	79
122	79
24	113
73	10
73	38
73	38
73	38
73	38
73	38
73	38
73	38
27	52
3	140
3	140
3	140
3	140
3	140
157	66
157	66
157	66
68	137
157	74
38	11
38	11
157	74
38	11
14	51
14	51
38	11
100	105
125	58
157	54
69	14
37	38
135	148
7	12
7	12
135	148
135	148
135	148
122	107
122	107
122	107
157	54
135	148
73	46
68	29
3	140
3	140
3	140
3	140
3	140
3	140
3	140
27	52
2	43
73	38
147	24
147	24
157	74
135	148
135	148
135	148
59	40
42	47
38	107
38	107
38	107
14	159
51	156
135	148
135	148
37	38
51	36
157	66
37	38
122	107
135	148
135	148
135	148
157	46
40	17
157	154
135	148
135	148
42	47
37	38
135	148
157	66
135	148
135	148
135	148
135	148
135	148
135	148
135	148
135	148
135	148
135	148
3	68
135	148
135	148
135	148
37	38
135	148
135	148
50	67
50	67
157	74
92	113
92	113
92	113
3	68
3	68
92	113
157	66
92	113
92	113
92	113
92	113
92	113
92	113
48	13
92	121
69	46
32	29
157	154
92	121
69	46
73	46
92	121
92	69
92	121
92	45
92	45
65	14
17	26
17	26
17	26
17	26
17	26
17	26
73	46
73	46
73	46
73	46
69	46
17	26
17	26
17	26
73	46
31	124
17	26
17	26
17	26
17	26
17	26
3	68
137	18
137	18
137	18
17	26
157	66
3	68
73	46
127	16
17	26
137	66
137	66
137	66
91	44
37	38
24	113
65	46
69	54
157	154
86	135
86	135
17	38
17	38
17	38
17	38
17	38
17	38
17	38
17	38
17	38
17	38
17	38
86	87
86	87
86	87
86	87
17	10
3	68
82	43
157	154
157	154
157	154
82	39
82	35
35	124
80	125
24	113
73	14
73	14
20	137
20	137
157	66
48	9
35	124
157	154
35	124
157	154
17	10
17	10
79	92
79	92
18	19
18	19
157	122
157	122
73	46
17	10
79	80
19	4
19	4
157	74
3	68
68	29
66	51
68	29
66	127
125	58
9	50
66	127
32	137
19	20
19	20
19	20
19	20
19	20
19	20
19	20
19	20
19	20
19	20
73	46
73	46
73	14
19	20
142	131
54	51
73	54
108	113
108	113
157	46
107	156
157	46
128	81
73	54
128	89
142	135
13	50
13	50
13	50
13	50
13	50
13	50
142	143
109	54
132	17
73	46
32	137
32	137
107	132
107	120
107	104
157	46
157	46
73	46
132	97
20	29
157	74
54	107
73	14
77	90
70	19
70	19
110	75
110	75
133	86
133	86
133	86
107	96
107	96
133	86
70	19
157	66
133	86
133	86
133	86
111	44
157	66
29	66
29	66
29	66
133	86
133	86
73	38
73	46
17	10
17	10
17	10
73	14
111	104
70	19
70	19
17	10
17	10
54	127
17	10
12	25
12	25
12	25
12	25
17	10
56	17
157	154
56	61
58	103
17	10
58	103
