49	59
2	20
2	20
2	20
49	59
59	97
59	49
73	51
73	51
73	51
73	51
73	51
73	51
73	51
49	43
73	51
73	51
73	51
73	51
73	51
73	51
56	38
54	156
54	156
54	36
2	68
54	36
2	4
110	136
50	48
124	34
124	34
124	34
124	34
124	34
124	34
7	25
7	25
7	25
7	25
152	34
49	119
156	54
23	65
157	51
157	51
52	110
107	121
49	7
49	11
20	70
20	70
20	70
20	70
20	70
20	70
20	70
20	70
20	70
20	70
20	70
157	107
23	65
49	39
23	65
23	73
49	35
23	73
23	73
23	73
49	23
23	73
23	73
49	23
23	73
23	73
23	73
23	73
49	23
49	23
23	73
23	73
23	73
69	51
69	51
23	73
23	73
23	73
23	73
23	73
23	73
23	73
23	73
23	73
23	73
23	73
70	140
23	73
23	73
23	73
23	73
23	73
51	69
23	73
23	73
23	73
51	69
70	140
23	73
23	73
23	73
23	73
23	73
20	2
107	73
157	127
157	127
137	19
157	107
137	3
76	50
76	98
18	140
18	140
69	23
69	23
69	23
69	23
27	65
28	2
28	2
28	2
28	2
18	32
28	18
28	18
23	69
23	69
23	69
23	69
23	69
23	69
23	69
23	69
23	69
23	69
23	69
23	69
23	69
23	69
23	69
23	69
23	69
23	69
23	69
23	69
23	69
23	69
23	69
23	69
23	69
23	69
23	69
23	69
23	69
23	69
23	69
23	69
23	69
23	69
23	69
23	69
23	69
23	69
23	69
23	69
23	69
23	69
23	69
23	69
23	69
70	140
70	140
70	140
28	18
28	18
28	18
18	32
18	32
18	32
18	32
18	32
18	32
28	70
28	70
18	32
69	51
69	51
69	51
69	51
18	32
18	32
18	32
18	32
29	19
29	19
18	32
18	32
76	110
76	110
69	51
69	51
69	51
76	110
76	110
76	110
76	110
76	110
76	110
76	110
78	100
67	13
67	13
73	135
18	28
18	28
18	28
18	4
32	18
32	18
17	103
17	95
73	107
73	107
73	107
73	107
73	107
73	107
73	107
73	107
17	71
17	71
17	71
17	71
17	71
17	71
17	71
17	71
135	85
135	85
17	71
135	85
135	85
17	71
17	71
17	71
17	71
17	71
148	86
148	86
148	86
148	86
135	85
135	85
135	85
135	85
34	124
34	124
17	59
17	59
107	65
23	49
135	85
135	85
135	85
23	49
135	85
135	85
135	85
36	54
17	59
71	117
17	59
135	85
135	85
135	85
135	85
157	123
157	123
2	140
2	140
135	85
51	69
51	69
51	69
135	85
135	85
17	59
135	85
17	59
17	59
17	59
51	69
17	59
51	69
17	59
17	59
135	85
135	85
87	133
87	133
37	59
51	69
51	69
37	71
135	85
16	74
38	12
135	85
135	85
135	85
135	85
38	72
39	121
42	40
118	84
118	84
118	84
118	84
118	84
118	84
118	84
118	108
14	136
42	84
42	96
13	67
13	67
13	67
13	67
13	67
13	67
73	23
73	23
73	23
44	78
44	78
44	78
73	23
2	140
73	23
67	9
73	23
73	23
70	20
44	102
44	102
73	23
73	23
73	23
73	23
73	23
70	20
73	23
73	23
73	23
73	23
73	23
73	23
73	23
2	20
2	20
2	20
110	52
2	20
2	20
109	107
73	23
73	23
73	23
70	20
109	51
109	51
73	23
73	23
73	23
133	135
133	135
133	135
133	135
73	23
73	23
73	23
131	133
49	83
131	133
129	159
103	117
129	159
129	127
70	20
129	127
129	123
129	123
73	23
129	107
129	107
70	20
70	20
129	51
129	51
129	23
10	40
110	76
66	68
66	68
66	68
66	68
66	32
66	32
128	114
128	114
69	51
140	70
128	114
20	70
51	73
51	73
51	73
51	73
51	73
51	73
51	73
127	149
127	113
51	109
51	109
127	109
127	109
127	105
127	77
127	69
20	70
127	69
127	65
127	61
127	49
127	45
127	41
127	29
127	29
20	70
20	70
127	25
127	17
126	84
126	84
65	75
122	128
65	75
65	67
65	67
65	51
65	51
65	27
65	27
49	59
126	64
126	64
126	60
126	60
92	49
92	45
17	26
17	26
17	26
17	26
17	26
17	26
17	26
17	26
109	54
109	54
109	54
109	54
65	110
73	46
13	50
13	50
17	26
13	50
73	46
17	26
128	105
128	105
73	46
13	50
73	46
73	46
109	122
135	148
135	148
135	148
135	148
135	148
135	148
73	46
73	46
135	148
110	27
91	44
2	19
86	135
86	135
86	135
86	135
157	154
157	154
86	135
86	115
138	135
110	75
110	75
51	32
17	38
49	34
51	92
73	46
86	87
86	87
86	87
49	38
65	50
73	46
2	19
2	19
38	107
86	87
38	75
38	75
86	87
65	54
147	24
83	124
83	92
83	92
82	43
157	66
157	66
157	54
54	107
65	54
73	38
65	74
49	118
65	110
24	1
73	14
73	14
73	14
157	54
157	46
66	123
66	123
157	46
54	123
19	4
19	4
78	111
78	111
2	19
2	19
19	20
19	20
19	20
66	123
119	92
119	92
66	127
27	52
70	19
112	105
19	20
77	118
77	90
77	90
42	47
46	123
127	160
127	156
127	156
127	144
127	132
127	128
127	124
127	100
127	96
127	92
127	80
127	68
127	68
127	56
127	44
127	36
127	36
70	19
29	2
70	19
77	90
29	70
29	2
67	48
70	19
114	47
77	90
2	43
148	93
135	148
135	148
46	123
77	90
135	148
49	82
77	6
114	63
73	14
73	14
135	148
135	148
29	70
38	11
19	28
135	148
19	28
101	118
157	74
133	130
133	130
133	130
133	130
133	130
133	130
133	130
133	130
133	130
133	130
133	130
133	130
133	130
133	130
133	130
133	130
133	130
133	130
133	130
135	148
135	148
135	148
135	148
135	148
135	148
135	148
135	148
135	148
135	148
135	148
135	148
135	148
7	12
7	12
19	32
135	148
135	148
135	148
135	148
135	148
19	32
10	71
10	71
76	117
50	67
37	38
37	38
76	13
75	136
24	113
24	113
135	148
7	12
118	119
49	22
135	148
14	23
135	148
135	148
37	10
75	76
133	86
133	86
133	86
133	86
133	86
75	76
135	148
135	148
135	148
75	76
132	97
135	148
75	76
75	76
75	76
19	140
19	140
75	12
75	12
65	14
65	14
65	14
65	14
131	148
131	148
65	30
65	30
73	54
129	122
129	122
129	78
129	74
129	74
129	66
129	66
129	54
129	54
20	109
129	46
129	46
20	109
24	113
122	123
129	38
129	10
129	10
24	113
135	148
24	113
135	148
135	148
135	148
20	109
20	137
107	120
135	148
135	148
135	148
135	148
135	148
22	83
157	74
96	101
148	133
17	10
17	10
17	10
17	10
17	10
17	10
24	113
24	113
65	110
13	50
92	121
17	10
17	10
17	10
17	10
92	113
92	113
124	31
13	48
13	48
13	48
13	48
13	48
13	48
44	111
44	111
130	133
130	133
130	133
130	133
130	133
19	70
130	133
129	140
129	92
92	83
19	70
29	140
29	140
129	36
129	36
129	32
19	18
19	18
17	56
10	17
137	68
137	68
18	137
17	56
17	56
17	56
17	40
109	20
109	20
92	107
29	20
29	20
29	4
29	4
127	154
127	126
28	3
28	3
127	122
127	122
127	122
127	94
127	90
127	78
135	138
135	138
135	138
135	138
135	138
135	138
135	138
135	138
135	138
135	138
135	138
127	74
127	74
127	66
127	66
127	54
127	54
127	46
135	138
135	138
135	138
135	138
135	138
135	138
68	3
68	3
68	3
68	3
68	3
68	3
68	3
68	3
68	3
68	3
68	3
127	46
127	38
135	138
135	138
135	138
135	138
135	138
127	34
148	135
148	135
148	135
148	135
148	135
127	10
127	10
127	10
127	6
148	115
148	115
148	115
135	138
135	138
135	138
50	13
148	115
135	138
135	138
12	11
109	36
12	11
148	135
148	135
148	135
148	135
148	135
148	135
148	135
148	135
148	135
148	135
148	135
148	135
148	115
148	115
148	135
148	135
148	135
148	135
109	36
148	115
148	115
148	115
148	115
148	115
148	135
148	135
148	135
148	135
148	135
148	135
148	135
148	135
148	135
148	135
148	135
148	135
148	135
12	11
12	7
12	7
12	7
12	7
148	115
109	48
27	14
148	115
148	115
148	115
148	115
148	115
148	115
13	76
101	96
101	96
101	104
101	128
101	128
124	35
124	35
137	140
137	140
124	35
124	35
24	147
51	74
105	100
109	92
105	112
105	112
105	112
51	46
51	46
51	46
23	54
135	142
135	142
135	142
135	142
135	142
135	142
135	142
135	142
135	142
135	142
135	142
135	142
135	142
135	142
135	142
135	142
135	142
135	142
50	9
135	142
135	142
135	142
135	142
135	142
23	46
135	142
135	142
135	142
135	142
49	12
23	46
23	46
23	46
23	46
124	31
135	142
17	40
17	40
124	31
17	40
23	14
23	14
49	24
23	14
23	14
23	14
23	14
23	14
23	14
23	14
17	40
17	40
17	40
23	14
137	20
137	20
23	14
23	14
123	46
51	54
17	40
148	87
14	65
14	65
49	88
14	65
10	37
2	29
11	38
11	38
11	38
17	40
17	56
17	40
66	137
66	137
10	41
66	129
17	56
66	29
66	29
147	14
140	3
65	136
65	136
65	136
49	108
65	76
51	54
51	54
65	52
65	52
65	48
17	56
17	56
17	56
65	16
65	16
49	124
137	32
51	66
51	66
51	66
61	56
61	56
157	36
137	32
157	36
113	24
107	42
118	101
22	121
22	45
14	73
14	73
17	56
17	56
157	156
118	77
118	77
118	77
118	77
118	61
118	61
14	137
17	56
17	56
54	129
54	65
20	19
20	19
20	19
20	19
20	19
20	19
20	19
20	19
20	19
20	19
20	19
20	19
20	19
20	19
20	19
20	19
135	134
135	134
135	134
135	134
135	134
135	134
135	134
135	134
135	134
76	75
76	75
76	75
76	75
135	134
76	75
76	75
76	75
135	134
76	11
76	11
76	11
76	11
135	134
135	134
76	75
76	75
76	75
135	134
76	75
76	75
76	75
76	75
76	75
76	75
38	17
38	73
76	7
76	7
76	7
76	7
76	7
76	7
38	73
135	134
135	134
135	134
135	134
135	134
135	134
135	134
20	19
20	19
20	19
118	21
16	51
135	134
135	134
135	134
135	134
135	134
135	134
75	110
135	134
37	56
75	38
42	17
42	61
42	125
42	145
83	54
43	2
43	2
43	2
36	123
44	91
44	91
86	133
86	133
135	86
135	86
87	86
87	86
87	86
133	148
44	91
133	148
44	91
133	132
133	132
133	132
157	156
133	132
133	132
133	132
131	130
131	130
115	86
92	39
92	39
92	39
92	39
13	48
13	48
13	48
135	143
135	143
20	140
23	51
23	51
20	140
135	143
20	140
20	140
20	140
23	51
20	140
20	140
20	140
20	140
156	36
23	51
23	51
23	51
42	118
23	147
23	147
92	44
127	123
129	65
17	49
17	37
17	37
17	37
17	37
17	37
17	37
17	37
17	37
17	37
17	37
17	37
135	143
17	49
17	25
17	25
17	25
17	25
17	49
17	49
17	25
17	49
23	51
17	25
128	100
17	25
17	25
24	88
24	88
24	88
24	88
24	88
23	51
23	51
17	25
24	88
24	88
17	25
17	25
135	143
135	131
135	131
135	131
135	131
135	131
135	131
135	131
135	131
135	131
135	131
135	131
135	131
135	131
135	131
135	131
135	131
135	131
135	131
135	131
135	131
135	131
135	131
135	131
135	131
135	131
24	92
73	69
17	145
17	49
17	49
73	69
17	49
17	49
17	49
129	29
109	149
73	69
73	69
73	69
73	69
73	69
73	69
73	69
73	69
73	69
73	69
73	69
73	69
2	70
135	143
135	143
73	69
73	69
73	69
73	69
73	69
46	54
73	69
54	122
73	69
73	69
157	149
135	147
17	21
17	21
135	143
135	143
17	21
17	21
17	21
135	143
69	73
69	73
69	73
135	147
17	41
17	41
17	41
17	21
17	21
17	21
17	21
17	21
17	21
17	41
73	1
17	41
17	145
22	118
135	143
73	5
20	28
135	143
17	1
157	129
73	37
127	15
152	124
69	73
14	74
14	74
135	143
135	131
157	149
76	136
135	131
126	42
135	143
126	42
109	149
135	15
135	143
28	140
17	41
17	41
17	41
17	41
37	17
17	41
133	93
135	115
92	24
76	136
37	61
133	93
2	70
129	29
109	149
127	11
69	73
92	44
76	136
76	136
10	106
69	73
131	135
28	20
37	17
37	17
66	54
37	73
69	73
127	159
127	159
69	73
69	73
28	20
135	143
76	136
76	136
28	20
28	20
76	136
76	136
28	20
131	135
2	70
76	136
76	136
76	136
28	20
28	20
135	143
127	59
127	147
86	130
86	130
135	143
127	123
76	136
76	136
76	136
76	136
37	33
109	157
109	157
109	149
109	149
109	149
135	143
130	86
17	145
157	65
37	73
130	86
157	65
20	32
17	145
127	51
77	17
130	86
135	143
127	51
127	39
130	86
20	28
28	140
20	4
135	143
135	143
28	140
44	104
127	23
28	140
65	13
2	70
44	104
28	140
127	31
65	9
28	140
37	145
37	145
2	70
28	140
129	137
51	107
127	107
10	14
75	11
75	11
135	143
109	149
13	9
129	109
54	46
109	149
127	83
127	79
109	149
49	121
51	23
51	23
23	107
23	107
23	107
13	9
129	109
157	129
51	23
17	145
17	145
17	145
17	145
17	145
17	145
135	143
83	39
20	140
7	75
20	140
42	26
20	140
28	32
13	9
109	149
20	32
140	20
118	42
118	42
51	127
103	107
20	140
51	127
51	127
51	127
20	140
20	140
20	140
127	71
137	29
137	29
51	127
51	127
127	107
127	103
51	127
101	77
17	125
76	84
17	97
135	143
23	27
20	140
20	140
140	20
129	69
101	77
28	32
147	23
17	61
17	61
44	104
44	104
17	61
126	106
126	106
129	69
127	91
28	32
109	149
37	41
129	65
28	32
17	61
17	61
17	61
135	143
17	61
17	61
17	61
17	61
23	51
23	51
28	32
135	143
135	143
23	51
23	51
42	126
135	143
